== START fs1202 Thu Jun 10 19:18:52 CEST 2021


RULE 'migrate_to_Data'
  MIGRATE
    WEIGHT(0)
  TO POOL 'Data'


+ mmapplypolicy fs1202 -I yes -L 1 -N nas12io12,nas12io10,nas12io11 -a 4 -P /tmp/migrate-to-Data.policy --qos maintenance
[I] Qos 'maintenance' configured as inf
[I] GPFS Current Data Pool Utilization in KB and %
Pool_Name          	    KB_Occupied	       KB_Total	 Percent_Occupied
Data                	  1190187298816	  1677662879744	    70.943174173%
capacity            	      424837120	  1256350285824	     0.033815181%
data                	     8189644800	   580635410432	     1.410462513%
system              	              0	              0	     0.000000000% (no user data)
[I] 398390856 of 916122880 inodes used: 43.486618%.
[I] Loaded policy rules from /tmp/migrate-to-Data.policy.
Evaluating policy rules with CURRENT_TIMESTAMP = 2021-06-10@17:18:53 UTC
Parsed 1 policy rules.


RULE 'migrate_to_Data'
  MIGRATE
    WEIGHT(0)
  TO POOL 'Data'


[I] 2021-06-10@17:18:54.754 Directory entries scanned: 0.           
[I] 2021-06-10@17:19:09.175 Directory entries scanned: 37887402.           
[I] 2021-06-10@17:19:24.175 Directory entries scanned: 75776198.           
[I] 2021-06-10@17:19:39.175 Directory entries scanned: 121862622.           
[I] 2021-06-10@17:19:54.175 Directory entries scanned: 157418675.           
[I] 2021-06-10@17:20:09.175 Directory entries scanned: 194230365.           
[I] 2021-06-10@17:20:24.175 Directory entries scanned: 221003150.           
[I] 2021-06-10@17:20:39.175 Directory entries scanned: 221003150.           
[I] 2021-06-10@17:20:54.176 Directory entries scanned: 261940668.           
[I] 2021-06-10@17:21:09.176 Directory entries scanned: 261940668.           
[I] 2021-06-10@17:21:24.176 Directory entries scanned: 276302074.           
[I] 2021-06-10@17:21:39.176 Directory entries scanned: 277532975.           
[I] 2021-06-10@17:21:54.176 Directory entries scanned: 278733863.           
[I] 2021-06-10@17:22:09.176 Directory entries scanned: 279963252.           
[I] 2021-06-10@17:22:24.176 Directory entries scanned: 288211146.           
[I] 2021-06-10@17:22:39.176 Directory entries scanned: 288211146.           
[I] 2021-06-10@17:22:54.176 Directory entries scanned: 310405902.           
[I] 2021-06-10@17:23:09.177 Directory entries scanned: 311608529.           
[I] 2021-06-10@17:23:24.177 Directory entries scanned: 311608529.           
[I] 2021-06-10@17:23:39.177 Directory entries scanned: 314128295.           
[I] 2021-06-10@17:23:54.177 Directory entries scanned: 315634638.           
[I] 2021-06-10@17:24:09.177 Directory entries scanned: 315634638.           
[I] 2021-06-10@17:24:24.177 Directory entries scanned: 318453075.           
[I] 2021-06-10@17:24:39.177 Directory entries scanned: 320043879.           
[I] 2021-06-10@17:24:54.177 Directory entries scanned: 321986034.           
[I] 2021-06-10@17:25:09.177 Directory entries scanned: 324191893.           
[I] 2021-06-10@17:25:24.177 Directory entries scanned: 324191893.           
[I] 2021-06-10@17:25:39.178 Directory entries scanned: 328474965.           
[I] 2021-06-10@17:25:54.178 Directory entries scanned: 329701157.           
[I] 2021-06-10@17:26:09.178 Directory entries scanned: 331115230.           
[I] 2021-06-10@17:26:24.178 Directory entries scanned: 331115230.           
[I] 2021-06-10@17:26:39.178 Directory entries scanned: 338693853.           
[I] 2021-06-10@17:26:54.178 Directory entries scanned: 341430216.           
[I] 2021-06-10@17:27:09.178 Directory entries scanned: 343164634.           
[I] 2021-06-10@17:27:24.178 Directory entries scanned: 344902172.           
[I] 2021-06-10@17:27:39.178 Directory entries scanned: 346464197.           
[I] 2021-06-10@17:27:54.178 Directory entries scanned: 347958179.           
[I] 2021-06-10@17:28:09.179 Directory entries scanned: 347958179.           
[I] 2021-06-10@17:28:24.179 Directory entries scanned: 355878590.           
[I] 2021-06-10@17:28:39.179 Directory entries scanned: 365456586.           
[I] 2021-06-10@17:28:54.179 Directory entries scanned: 369310870.           
[I] 2021-06-10@17:29:09.179 Directory entries scanned: 373828906.           
[I] 2021-06-10@17:29:24.179 Directory entries scanned: 384457407.           
[I] 2021-06-10@17:29:39.179 Directory entries scanned: 390877292.           
[I] 2021-06-10@17:29:54.179 Directory entries scanned: 390877292.           
[I] 2021-06-10@17:30:09.179 Directory entries scanned: 402707996.           
[I] 2021-06-10@17:30:10.868 Directory entries scanned: 402894320.           
[I] Directories scan: 354475297 files, 41465309 directories, 6953714 other objects, 0 'skipped' files and/or errors.
[I] 2021-06-10@17:30:11.255 Parallel-piped sort and policy evaluation. 0 files scanned.           
[I] 2021-06-10@17:30:24.179 Parallel-piped sort and policy evaluation. 44394328 files scanned.           
[I] 2021-06-10@17:30:39.179 Parallel-piped sort and policy evaluation. 99517960 files scanned.           
[I] 2021-06-10@17:30:54.180 Parallel-piped sort and policy evaluation. 156363490 files scanned.           
[I] 2021-06-10@17:31:09.180 Parallel-piped sort and policy evaluation. 224284613 files scanned.           
[I] 2021-06-10@17:31:24.180 Parallel-piped sort and policy evaluation. 282864616 files scanned.           
[I] 2021-06-10@17:31:39.180 Parallel-piped sort and policy evaluation. 345159826 files scanned.           
[I] 2021-06-10@17:31:52.927 Parallel-piped sort and policy evaluation. 402894320 files scanned.           
[I] 2021-06-10@17:33:18.743 Piped sorting and candidate file choosing. 0 records scanned.           
[I] 2021-06-10@17:33:24.181 Piped sorting and candidate file choosing. 0 records scanned.           
[I] 2021-06-10@17:33:39.181 Piped sorting and candidate file choosing. 9820353 records scanned.           
[I] 2021-06-10@17:33:54.181 Piped sorting and candidate file choosing. 25946413 records scanned.           
[I] 2021-06-10@17:34:09.181 Piped sorting and candidate file choosing. 42143402 records scanned.           
[I] 2021-06-10@17:34:24.181 Piped sorting and candidate file choosing. 55119626 records scanned.           
[I] 2021-06-10@17:34:39.181 Piped sorting and candidate file choosing. 70932360 records scanned.           
[I] 2021-06-10@17:34:54.182 Piped sorting and candidate file choosing. 86590151 records scanned.           
[I] 2021-06-10@17:35:09.182 Piped sorting and candidate file choosing. 102111967 records scanned.           
[I] 2021-06-10@17:35:24.182 Piped sorting and candidate file choosing. 112210736 records scanned.           
[I] 2021-06-10@17:35:39.182 Piped sorting and candidate file choosing. 127696343 records scanned.           
[I] 2021-06-10@17:35:54.182 Piped sorting and candidate file choosing. 143305716 records scanned.           
[I] 2021-06-10@17:36:09.182 Piped sorting and candidate file choosing. 156675297 records scanned.           
[I] 2021-06-10@17:36:24.182 Piped sorting and candidate file choosing. 173251007 records scanned.           
[I] 2021-06-10@17:36:39.183 Piped sorting and candidate file choosing. 189404317 records scanned.           
[I] 2021-06-10@17:36:54.183 Piped sorting and candidate file choosing. 202481791 records scanned.           
[I] 2021-06-10@17:37:09.183 Piped sorting and candidate file choosing. 217735480 records scanned.           
[I] 2021-06-10@17:37:24.183 Piped sorting and candidate file choosing. 230537713 records scanned.           
[I] 2021-06-10@17:37:39.183 Piped sorting and candidate file choosing. 245957707 records scanned.           
[I] 2021-06-10@17:37:54.183 Piped sorting and candidate file choosing. 258682715 records scanned.           
[I] 2021-06-10@17:38:09.184 Piped sorting and candidate file choosing. 273606543 records scanned.           
[I] 2021-06-10@17:38:24.184 Piped sorting and candidate file choosing. 288271863 records scanned.           
[I] 2021-06-10@17:38:39.184 Piped sorting and candidate file choosing. 300767707 records scanned.           
[I] 2021-06-10@17:38:54.184 Piped sorting and candidate file choosing. 316049837 records scanned.           
[I] 2021-06-10@17:39:09.184 Piped sorting and candidate file choosing. 331218698 records scanned.           
[I] 2021-06-10@17:39:24.184 Piped sorting and candidate file choosing. 346984985 records scanned.           
[I] 2021-06-10@17:39:31.345 Piped sorting and candidate file choosing. 354474993 records scanned.           
[I] Summary of Rule Applicability and File Choices:
 Rule#	    Hit_Cnt	     KB_Hit	     Chosen	  KB_Chosen	     KB_Ill	Rule
     0	  354474993	1171467761632	          7	   14563264	   14563264	RULE 'migrate_to_Data' MIGRATE WEIGHT(.) TO POOL 'Data'

[I] Filesystem objects with no applicable rules: 48419018.

[I] GPFS Policy Decisions and File Choice Totals:
 Chose to migrate 14563264KB: 7 of 354474993 candidates;
 14563264KB of chosen data is illplaced or illreplicated;
Predicted Data Pool Utilization in KB and %:
Pool_Name          	    KB_Occupied	       KB_Total	 Percent_Occupied
Data                	  1190411298752	  1677662879744	    70.956526077%
capacity            	      424837120	  1256350285824	     0.033815181%
data                	     8175081536	   580635410432	     1.407954353%
system              	              0	              0	     0.000000000% (no user data)
[I] Because some data is illplaced or illreplicated, predicted pool utilization may be negative and/or misleading!
[I] 2021-06-10@17:39:32.202 Policy execution. 0 files dispatched.           
[I] Messages tagged with <7> are from node nas12io11a-i.
<7> [E] Error opening /fs1202/id_sd_homes_s1/nasadmin/Mountmonitor/mount_tests.txt: Permission denied
[I] Messages tagged with <1> are from node localhost.
<1> [E] Error opening /fs1202/green_groups_kp_public/Images/FIP/IP-Camera/axis-ACCC8EF91151/index.db: Permission denied
[I] 2021-06-10@17:39:39.184 Policy execution. 7 files dispatched.           
[I] 2021-06-10@17:39:54.185 Policy execution. 7 files dispatched.           
[I] 2021-06-10@17:40:09.185 Policy execution. 7 files dispatched.           
[I] 2021-06-10@17:40:24.185 Policy execution. 7 files dispatched.           
[I] 2021-06-10@17:40:39.185 Policy execution. 7 files dispatched.           
[I] 2021-06-10@17:40:54.185 Policy execution. 7 files dispatched.           
[I] 2021-06-10@17:41:09.185 Policy execution. 7 files dispatched.           
[I] 2021-06-10@17:41:24.185 Policy execution. 7 files dispatched.           
[I] 2021-06-10@17:41:39.186 Policy execution. 7 files dispatched.           
[I] 2021-06-10@17:41:54.186 Policy execution. 7 files dispatched.           
[I] 2021-06-10@17:42:09.186 Policy execution. 7 files dispatched.           
[I] 2021-06-10@17:42:24.186 Policy execution. 7 files dispatched.           
[I] 2021-06-10@17:42:39.186 Policy execution. 7 files dispatched.           
[I] 2021-06-10@17:42:42.869 Policy execution. 7 files dispatched.           
[I] A total of 7 files have been migrated, deleted or processed by an EXTERNAL EXEC/script;
	2 'skipped' files and/or errors.
[E] Summary of errors:: _bunches of PDRs with errors:2.
mmapplypolicy: Command failed. Examine previous error messages to determine cause.
+ '[' 9 -eq 0 ']'
+ set +x
== STOP fs1202 Thu Jun 10 19:42:43 CEST 2021
