Wed May 19 09:27:42 CEST 2021
fs1201 14000G rg_nas12io12 io12
mmvdisk: Vdisk set 'fs1201_io12_s_1' has been defined.
mmvdisk: Recovery group 'rg_nas12io12' has been defined in vdisk set 'fs1201_io12_s_1'.

                      member vdisks     
vdisk set        count   size   raw size  created  file system and attributes
---------------  ----- -------- --------  -------  --------------------------
fs1201_io12_s_1      4 3498 GiB   10 TiB  no       -, DA1, 3WayReplication, 1 MiB, metadataOnly, system

                declustered                 capacity            all vdisk sets defined 
recovery group     array     type  total raw  free raw  free%  in the declustered array
--------------  -----------  ----  ---------  --------  -----  ------------------------
rg_nas12io12    DA1          NVMe    152 TiB   111 TiB    72%  fs1201_io12_s_1

                  vdisk set map memory per server      
node class  available  required  required per vdisk set
----------  ---------  --------  ----------------------
nas12io12      90 GiB  5600 MiB  fs1201_io12_s_1 (671 MiB)

mmvdisk: 4 vdisks and 4 NSDs will be created in vdisk set 'fs1201_io12_s_1'.
mmvdisk: (mmcrvdisk) [I] Processing vdisk RG005LG001VS053
mmvdisk: (mmcrvdisk) [I] Processing vdisk RG005LG002VS053
mmvdisk: (mmcrvdisk) [I] Processing vdisk RG005LG003VS053
mmvdisk: (mmcrvdisk) [I] Processing vdisk RG005LG004VS053
mmvdisk: Created all vdisks in vdisk set 'fs1201_io12_s_1'.
mmvdisk: (mmcrnsd) Processing disk RG005LG001VS053
mmvdisk: (mmcrnsd) Processing disk RG005LG002VS053
mmvdisk: (mmcrnsd) Processing disk RG005LG003VS053
mmvdisk: (mmcrnsd) Processing disk RG005LG004VS053
mmvdisk: Created all NSDs in vdisk set 'fs1201_io12_s_1'.
Wed May 19 09:29:36 CEST 2021
fs1202 4000G rg_nas12io12 io12
mmvdisk: Vdisk set 'fs1202_io12_s_1' has been defined.
mmvdisk: Recovery group 'rg_nas12io12' has been defined in vdisk set 'fs1202_io12_s_1'.

                      member vdisks     
vdisk set        count   size   raw size  created  file system and attributes
---------------  ----- -------- --------  -------  --------------------------
fs1202_io12_s_1      4  999 GiB 3036 GiB  no       -, DA1, 3WayReplication, 1 MiB, metadataOnly, system

                declustered                 capacity            all vdisk sets defined 
recovery group     array     type  total raw  free raw  free%  in the declustered array
--------------  -----------  ----  ---------  --------  -----  ------------------------
rg_nas12io12    DA1          NVMe    152 TiB    99 TiB    65%  fs1201_io12_s_1, fs1202_io12_s_1

                  vdisk set map memory per server      
node class  available  required  required per vdisk set
----------  ---------  --------  ----------------------
nas12io12      90 GiB  5792 MiB  fs1201_io12_s_1 (671 MiB), fs1202_io12_s_1 (192 MiB)

mmvdisk: 4 vdisks and 4 NSDs will be created in vdisk set 'fs1202_io12_s_1'.
mmvdisk: (mmcrvdisk) [I] Processing vdisk RG005LG001VS054
mmvdisk: (mmcrvdisk) [I] Processing vdisk RG005LG002VS054
mmvdisk: (mmcrvdisk) [I] Processing vdisk RG005LG003VS054
mmvdisk: (mmcrvdisk) [I] Processing vdisk RG005LG004VS054
mmvdisk: Created all vdisks in vdisk set 'fs1202_io12_s_1'.
mmvdisk: (mmcrnsd) Processing disk RG005LG001VS054
mmvdisk: (mmcrnsd) Processing disk RG005LG002VS054
mmvdisk: (mmcrnsd) Processing disk RG005LG003VS054
mmvdisk: (mmcrnsd) Processing disk RG005LG004VS054
mmvdisk: Created all NSDs in vdisk set 'fs1202_io12_s_1'.
Wed May 19 09:31:27 CEST 2021
fs1205 200G rg_nas12io12 io12
mmvdisk: Vdisk set 'fs1205_io12_s_1' has been defined.
mmvdisk: Recovery group 'rg_nas12io12' has been defined in vdisk set 'fs1205_io12_s_1'.

                      member vdisks     
vdisk set        count   size   raw size  created  file system and attributes
---------------  ----- -------- --------  -------  --------------------------
fs1205_io12_s_1      4   51 GiB  156 GiB  no       -, DA1, 3WayReplication, 1 MiB, metadataOnly, system

                declustered                 capacity            all vdisk sets defined 
recovery group     array     type  total raw  free raw  free%  in the declustered array
--------------  -----------  ----  ---------  --------  -----  ------------------------
rg_nas12io12    DA1          NVMe    152 TiB    98 TiB    64%  fs1201_io12_s_1, fs1202_io12_s_1,
                                                               fs1205_io12_s_1

                  vdisk set map memory per server      
node class  available  required  required per vdisk set
----------  ---------  --------  ----------------------
nas12io12      90 GiB  5802 MiB  fs1201_io12_s_1 (671 MiB), fs1202_io12_s_1 (192 MiB),
                                 fs1205_io12_s_1 (10 MiB)

mmvdisk: 4 vdisks and 4 NSDs will be created in vdisk set 'fs1205_io12_s_1'.
mmvdisk: (mmcrvdisk) [I] Processing vdisk RG005LG001VS069
mmvdisk: (mmcrvdisk) [I] Processing vdisk RG005LG002VS069
mmvdisk: (mmcrvdisk) [I] Processing vdisk RG005LG003VS069
mmvdisk: (mmcrvdisk) [I] Processing vdisk RG005LG004VS069
mmvdisk: Created all vdisks in vdisk set 'fs1205_io12_s_1'.
mmvdisk: (mmcrnsd) Processing disk RG005LG001VS069
mmvdisk: (mmcrnsd) Processing disk RG005LG002VS069
mmvdisk: (mmcrnsd) Processing disk RG005LG003VS069
mmvdisk: (mmcrnsd) Processing disk RG005LG004VS069
mmvdisk: Created all NSDs in vdisk set 'fs1205_io12_s_1'.
Wed May 19 09:33:10 CEST 2021
fs1214 200G rg_nas12io12 io12
mmvdisk: Vdisk set 'fs1214_io12_s_1' has been defined.
mmvdisk: Recovery group 'rg_nas12io12' has been defined in vdisk set 'fs1214_io12_s_1'.

                      member vdisks     
vdisk set        count   size   raw size  created  file system and attributes
---------------  ----- -------- --------  -------  --------------------------
fs1214_io12_s_1      4  300 GiB  912 GiB  no       -, DA1, 3WayReplication, 1 MiB, metadataOnly, system

                declustered                 capacity            all vdisk sets defined 
recovery group     array     type  total raw  free raw  free%  in the declustered array
--------------  -----------  ----  ---------  --------  -----  ------------------------
rg_nas12io12    DA1          NVMe    152 TiB    95 TiB    62%  fs1201_io12_s_1, fs1202_io12_s_1,
                                                               fs1205_io12_s_1, fs1214_io12_s_1

                  vdisk set map memory per server      
node class  available  required  required per vdisk set
----------  ---------  --------  ----------------------
nas12io12      90 GiB  5860 MiB  fs1201_io12_s_1 (671 MiB), fs1202_io12_s_1 (192 MiB),
                                 fs1205_io12_s_1 (10 MiB), fs1214_io12_s_1 (58 MiB)

mmvdisk: 4 vdisks and 4 NSDs will be created in vdisk set 'fs1214_io12_s_1'.
mmvdisk: (mmcrvdisk) [I] Processing vdisk RG005LG001VS070
mmvdisk: (mmcrvdisk) [I] Processing vdisk RG005LG002VS070
mmvdisk: (mmcrvdisk) [I] Processing vdisk RG005LG003VS070
mmvdisk: (mmcrvdisk) [I] Processing vdisk RG005LG004VS070
mmvdisk: Created all vdisks in vdisk set 'fs1214_io12_s_1'.
mmvdisk: (mmcrnsd) Processing disk RG005LG001VS070
mmvdisk: (mmcrnsd) Processing disk RG005LG002VS070
mmvdisk: (mmcrnsd) Processing disk RG005LG003VS070
mmvdisk: (mmcrnsd) Processing disk RG005LG004VS070
mmvdisk: Created all NSDs in vdisk set 'fs1214_io12_s_1'.
Wed May 19 09:34:46 CEST 2021
fscesroot 10G rg_nas12io12 io12 dataAndMetadata
mmvdisk: Vdisk set 'fscesroot_io12_s' has been defined.
mmvdisk: Recovery group 'rg_nas12io12' has been defined in vdisk set 'fscesroot_io12_s'.

                       member vdisks     
vdisk set         count   size   raw size  created  file system and attributes
----------------  ----- -------- --------  -------  --------------------------
fscesroot_io12_s      4 4016 MiB   12 GiB  no       -, DA1, 3WayReplication, 1 MiB, dataAndMetadata, system

                declustered                 capacity            all vdisk sets defined 
recovery group     array     type  total raw  free raw  free%  in the declustered array
--------------  -----------  ----  ---------  --------  -----  ------------------------
rg_nas12io12    DA1          NVMe    152 TiB    95 TiB    62%  fs1201_io12_s_1, fs1202_io12_s_1,
                                                               fs1205_io12_s_1, fs1214_io12_s_1,
                                                               fscesroot_io12_s

                  vdisk set map memory per server      
node class  available  required  required per vdisk set
----------  ---------  --------  ----------------------
nas12io12      90 GiB  5861 MiB  fs1201_io12_s_1 (671 MiB), fs1202_io12_s_1 (192 MiB),
                                 fs1205_io12_s_1 (10 MiB), fs1214_io12_s_1 (58 MiB),
                                 fscesroot_io12_s (1024 KiB)

mmvdisk: 4 vdisks and 4 NSDs will be created in vdisk set 'fscesroot_io12_s'.
mmvdisk: (mmcrvdisk) [I] Processing vdisk RG005LG001VS090
mmvdisk: (mmcrvdisk) [I] Processing vdisk RG005LG002VS090
mmvdisk: (mmcrvdisk) [I] Processing vdisk RG005LG003VS090
mmvdisk: (mmcrvdisk) [I] Processing vdisk RG005LG004VS090
mmvdisk: Created all vdisks in vdisk set 'fscesroot_io12_s'.
mmvdisk: (mmcrnsd) Processing disk RG005LG001VS090
mmvdisk: (mmcrnsd) Processing disk RG005LG002VS090
mmvdisk: (mmcrnsd) Processing disk RG005LG003VS090
mmvdisk: (mmcrnsd) Processing disk RG005LG004VS090
mmvdisk: Created all NSDs in vdisk set 'fscesroot_io12_s'.
Wed May 19 09:36:17 CEST 2021
protectFilePool
mmvdisk: Vdisk set 'protectFilePool_io08_s' has been defined.
mmvdisk: Recovery group 'rg_nas12io08a-i' has been defined in vdisk set 'protectFilePool_io08_s'.
mmvdisk: Recovery group 'rg_nas12io08b-i' has been defined in vdisk set 'protectFilePool_io08_s'.

                             member vdisks     
vdisk set               count   size   raw size  created  file system and attributes
----------------------  ----- -------- --------  -------  --------------------------
protectFilePool_io08_s      2  557 GiB  720 GiB  no       -, DA1, 8+2p, 1 MiB, dataAndMetadata, system

                 declustered                 capacity            all vdisk sets defined 
recovery group      array     type  total raw  free raw  free%  in the declustered array
---------------  -----------  ----  ---------  --------  -----  ------------------------
rg_nas12io08a-i  DA1          HDD    3081 TiB  1295 TiB    42%  fs1201io08capacity1,
                                                                fs1201io08capacity2,
                                                                fs1201io08capacity3,
                                                                fs1201io08data1, fs1201io08data10,
                                                                fs1201io08data2, fs1201io08data3,
                                                                fs1201io08data4, fs1201io08data5,
                                                                fs1201io08data6, fs1201io08data7,
                                                                fs1201io08data8, fs1201io08data9,
                                                                fs1202io08capacity1,
                                                                fs1202io08capacity2,
                                                                fs1202io08capacity3,
                                                                fs1202io08data1, fs1202io08data10,
                                                                fs1202io08data2, fs1202io08data3,
                                                                fs1202io08data4, fs1202io08data5,
                                                                fs1202io08data6, fs1202io08data7,
                                                                fs1202io08data8, fs1202io08data9,
                                                                fs1214io08data1, fs1214io08data2,
                                                                fs1214io08data3,
                                                                protectFilePool_io08_s
rg_nas12io08b-i  DA1          HDD    3081 TiB  1295 TiB    42%  fs1201io08capacity1,
                                                                fs1201io08capacity2,
                                                                fs1201io08capacity3,
                                                                fs1201io08data1, fs1201io08data10,
                                                                fs1201io08data2, fs1201io08data3,
                                                                fs1201io08data4, fs1201io08data5,
                                                                fs1201io08data6, fs1201io08data7,
                                                                fs1201io08data8, fs1201io08data9,
                                                                fs1202io08capacity1,
                                                                fs1202io08capacity2,
                                                                fs1202io08capacity3,
                                                                fs1202io08data1, fs1202io08data10,
                                                                fs1202io08data2, fs1202io08data3,
                                                                fs1202io08data4, fs1202io08data5,
                                                                fs1202io08data6, fs1202io08data7,
                                                                fs1202io08data8, fs1202io08data9,
                                                                fs1214io08data1, fs1214io08data2,
                                                                fs1214io08data3,
                                                                protectFilePool_io08_s

                                vdisk set map memory per server      
node class                available  required  required per vdisk set
------------------------  ---------  --------  ----------------------
nas12io08a_inas12io08b_i     70 GiB    59 GiB  fs1201io08capacity1 (11 GiB),
                                               fs1201io08capacity2 (11 GiB),
                                               fs1201io08capacity3 (11 GiB),
                                               fs1201io08data1 (584 MiB),
                                               fs1201io08data10 (584 MiB),
                                               fs1201io08data2 (584 MiB), fs1201io08data3 (584 MiB),
                                               fs1201io08data4 (584 MiB), fs1201io08data5 (584 MiB),
                                               fs1201io08data6 (584 MiB), fs1201io08data7 (584 MiB),
                                               fs1201io08data8 (584 MiB), fs1201io08data9 (584 MiB),
                                               fs1202io08capacity1 (5757 MiB),
                                               fs1202io08capacity2 (5757 MiB),
                                               fs1202io08capacity3 (5757 MiB),
                                               fs1202io08data1 (296 MiB),
                                               fs1202io08data10 (296 MiB),
                                               fs1202io08data2 (296 MiB), fs1202io08data3 (296 MiB),
                                               fs1202io08data4 (296 MiB), fs1202io08data5 (296 MiB),
                                               fs1202io08data6 (296 MiB), fs1202io08data7 (296 MiB),
                                               fs1202io08data8 (296 MiB), fs1202io08data9 (296 MiB),
                                               fs1214io08data1 (296 MiB), fs1214io08data2 (296 MiB),
                                               fs1214io08data3 (296 MiB),
                                               protectFilePool_io08_s (32 MiB)

mmvdisk: 2 vdisks and 2 NSDs will be created in vdisk set 'protectFilePool_io08_s'.
mmvdisk: (mmcrvdisk) [I] Processing vdisk RG008VS091
mmvdisk: (mmcrvdisk) [I] Processing vdisk RG009VS091
mmvdisk: Created all vdisks in vdisk set 'protectFilePool_io08_s'.
mmvdisk: (mmcrnsd) Processing disk RG008VS091
mmvdisk: (mmcrnsd) Processing disk RG009VS091
mmvdisk: Created all NSDs in vdisk set 'protectFilePool_io08_s'.
Wed May 19 09:38:36 CEST 2021
