Tue May 18 09:06:17 CEST 2021
fs2201 8000G rg_nas22io12 io12
mmvdisk: Vdisk set 'fs2201_io12_s_1' has been defined.
mmvdisk: Recovery group 'rg_nas22io12' has been defined in vdisk set 'fs2201_io12_s_1'.

                      member vdisks     
vdisk set        count   size   raw size  created  file system and attributes
---------------  ----- -------- --------  -------  --------------------------
fs2201_io12_s_1      4 1998 GiB 6072 GiB  no       -, DA1, 3WayReplication, 1 MiB, metadataOnly, system

                declustered                 capacity            all vdisk sets defined 
recovery group     array     type  total raw  free raw  free%  in the declustered array
--------------  -----------  ----  ---------  --------  -----  ------------------------
rg_nas22io12    DA1          NVMe    152 TiB   129 TiB    84%  fs2201_io12_s_1

                  vdisk set map memory per server      
node class  available  required  required per vdisk set
----------  ---------  --------  ----------------------
nas22io12      90 GiB  5312 MiB  fs2201_io12_s_1 (383 MiB)

mmvdisk: 4 vdisks and 4 NSDs will be created in vdisk set 'fs2201_io12_s_1'.
mmvdisk: (mmcrvdisk) [I] Processing vdisk RG003LG001VS015
mmvdisk: (mmcrvdisk) [I] Processing vdisk RG003LG002VS015
mmvdisk: (mmcrvdisk) [I] Processing vdisk RG003LG003VS015
mmvdisk: (mmcrvdisk) [I] Processing vdisk RG003LG004VS015
mmvdisk: Created all vdisks in vdisk set 'fs2201_io12_s_1'.
mmvdisk: (mmcrnsd) Processing disk RG003LG001VS015
mmvdisk: (mmcrnsd) Processing disk RG003LG002VS015
mmvdisk: (mmcrnsd) Processing disk RG003LG003VS015
mmvdisk: (mmcrnsd) Processing disk RG003LG004VS015
mmvdisk: Created all NSDs in vdisk set 'fs2201_io12_s_1'.
Tue May 18 09:08:13 CEST 2021
fs2202 5000G rg_nas22io12 io12
mmvdisk: Vdisk set 'fs2202_io12_s_1' has been defined.
mmvdisk: Recovery group 'rg_nas22io12' has been defined in vdisk set 'fs2202_io12_s_1'.

                      member vdisks     
vdisk set        count   size   raw size  created  file system and attributes
---------------  ----- -------- --------  -------  --------------------------
fs2202_io12_s_1      4 1251 GiB 3804 GiB  no       -, DA1, 3WayReplication, 1 MiB, metadataOnly, system

                declustered                 capacity            all vdisk sets defined 
recovery group     array     type  total raw  free raw  free%  in the declustered array
--------------  -----------  ----  ---------  --------  -----  ------------------------
rg_nas22io12    DA1          NVMe    152 TiB   114 TiB    74%  fs2201_io12_s_1, fs2202_io12_s_1

                  vdisk set map memory per server      
node class  available  required  required per vdisk set
----------  ---------  --------  ----------------------
nas22io12      90 GiB  5552 MiB  fs2201_io12_s_1 (383 MiB), fs2202_io12_s_1 (240 MiB)

mmvdisk: 4 vdisks and 4 NSDs will be created in vdisk set 'fs2202_io12_s_1'.
mmvdisk: (mmcrvdisk) [I] Processing vdisk RG003LG001VS064
mmvdisk: (mmcrvdisk) [I] Processing vdisk RG003LG002VS064
mmvdisk: (mmcrvdisk) [I] Processing vdisk RG003LG003VS064
mmvdisk: (mmcrvdisk) [I] Processing vdisk RG003LG004VS064
mmvdisk: Created all vdisks in vdisk set 'fs2202_io12_s_1'.
mmvdisk: (mmcrnsd) Processing disk RG003LG001VS064
mmvdisk: (mmcrnsd) Processing disk RG003LG002VS064
mmvdisk: (mmcrnsd) Processing disk RG003LG003VS064
mmvdisk: (mmcrnsd) Processing disk RG003LG004VS064
mmvdisk: Created all NSDs in vdisk set 'fs2202_io12_s_1'.
Tue May 18 09:10:17 CEST 2021
fs2203 500G rg_nas22io12 io12
mmvdisk: Vdisk set 'fs2203_io12_s_1' has been defined.
mmvdisk: Recovery group 'rg_nas22io12' has been defined in vdisk set 'fs2203_io12_s_1'.

                      member vdisks     
vdisk set        count   size   raw size  created  file system and attributes
---------------  ----- -------- --------  -------  --------------------------
fs2203_io12_s_1      4  126 GiB  384 GiB  no       -, DA1, 3WayReplication, 1 MiB, metadataOnly, system

                declustered                 capacity            all vdisk sets defined 
recovery group     array     type  total raw  free raw  free%  in the declustered array
--------------  -----------  ----  ---------  --------  -----  ------------------------
rg_nas22io12    DA1          NVMe    152 TiB   112 TiB    73%  fs2201_io12_s_1, fs2202_io12_s_1,
                                                               fs2203_io12_s_1

                  vdisk set map memory per server      
node class  available  required  required per vdisk set
----------  ---------  --------  ----------------------
nas22io12      90 GiB  5577 MiB  fs2201_io12_s_1 (383 MiB), fs2202_io12_s_1 (240 MiB),
                                 fs2203_io12_s_1 (25 MiB)

mmvdisk: 4 vdisks and 4 NSDs will be created in vdisk set 'fs2203_io12_s_1'.
mmvdisk: (mmcrvdisk) [I] Processing vdisk RG003LG001VS065
mmvdisk: (mmcrvdisk) [I] Processing vdisk RG003LG002VS065
mmvdisk: (mmcrvdisk) [I] Processing vdisk RG003LG003VS065
mmvdisk: (mmcrvdisk) [I] Processing vdisk RG003LG004VS065
mmvdisk: Created all vdisks in vdisk set 'fs2203_io12_s_1'.
mmvdisk: (mmcrnsd) Processing disk RG003LG001VS065
mmvdisk: (mmcrnsd) Processing disk RG003LG002VS065
mmvdisk: (mmcrnsd) Processing disk RG003LG003VS065
mmvdisk: (mmcrnsd) Processing disk RG003LG004VS065
mmvdisk: Created all NSDs in vdisk set 'fs2203_io12_s_1'.
Tue May 18 09:12:25 CEST 2021
fs3101h 6000G rg_nas22io12 io12
mmvdisk: Vdisk set 'fs3101h_io12_s_1' has been defined.
mmvdisk: Recovery group 'rg_nas22io12' has been defined in vdisk set 'fs3101h_io12_s_1'.

                       member vdisks     
vdisk set         count   size   raw size  created  file system and attributes
----------------  ----- -------- --------  -------  --------------------------
fs3101h_io12_s_1      4 1500 GiB 4560 GiB  no       -, DA1, 3WayReplication, 1 MiB, metadataOnly, system

                declustered                 capacity            all vdisk sets defined 
recovery group     array     type  total raw  free raw  free%  in the declustered array
--------------  -----------  ----  ---------  --------  -----  ------------------------
rg_nas22io12    DA1          NVMe    152 TiB    94 TiB    62%  fs2201_io12_s_1, fs2202_io12_s_1,
                                                               fs2203_io12_s_1, fs3101h_io12_s_1

                  vdisk set map memory per server      
node class  available  required  required per vdisk set
----------  ---------  --------  ----------------------
nas22io12      90 GiB  5865 MiB  fs2201_io12_s_1 (383 MiB), fs2202_io12_s_1 (240 MiB),
                                 fs2203_io12_s_1 (25 MiB), fs3101h_io12_s_1 (288 MiB)

mmvdisk: 4 vdisks and 4 NSDs will be created in vdisk set 'fs3101h_io12_s_1'.
mmvdisk: (mmcrvdisk) [I] Processing vdisk RG003LG001VS066
mmvdisk: (mmcrvdisk) [I] Processing vdisk RG003LG002VS066
mmvdisk: (mmcrvdisk) [I] Processing vdisk RG003LG003VS066
mmvdisk: (mmcrvdisk) [I] Processing vdisk RG003LG004VS066
mmvdisk: Created all vdisks in vdisk set 'fs3101h_io12_s_1'.
mmvdisk: (mmcrnsd) Processing disk RG003LG001VS066
mmvdisk: (mmcrnsd) Processing disk RG003LG002VS066
mmvdisk: (mmcrnsd) Processing disk RG003LG003VS066
mmvdisk: (mmcrnsd) Processing disk RG003LG004VS066
mmvdisk: Created all NSDs in vdisk set 'fs3101h_io12_s_1'.
Tue May 18 09:14:09 CEST 2021
fscesroot 10G rg_nas22io12 io12 dataAndMetadata
mmvdisk: Vdisk set 'fscesroot_io12_s' has been defined.
mmvdisk: Recovery group 'rg_nas22io12' has been defined in vdisk set 'fscesroot_io12_s'.

                       member vdisks     
vdisk set         count   size   raw size  created  file system and attributes
----------------  ----- -------- --------  -------  --------------------------
fscesroot_io12_s      4 4016 MiB   12 GiB  no       -, DA1, 3WayReplication, 1 MiB, dataAndMetadata, system

                declustered                 capacity            all vdisk sets defined 
recovery group     array     type  total raw  free raw  free%  in the declustered array
--------------  -----------  ----  ---------  --------  -----  ------------------------
rg_nas22io12    DA1          NVMe    152 TiB    94 TiB    62%  fs2201_io12_s_1, fs2202_io12_s_1,
                                                               fs2203_io12_s_1, fs3101h_io12_s_1,
                                                               fscesroot_io12_s

                  vdisk set map memory per server      
node class  available  required  required per vdisk set
----------  ---------  --------  ----------------------
nas22io12      90 GiB  5866 MiB  fs2201_io12_s_1 (383 MiB), fs2202_io12_s_1 (240 MiB),
                                 fs2203_io12_s_1 (25 MiB), fs3101h_io12_s_1 (288 MiB),
                                 fscesroot_io12_s (1024 KiB)

mmvdisk: 4 vdisks and 4 NSDs will be created in vdisk set 'fscesroot_io12_s'.
mmvdisk: (mmcrvdisk) [I] Processing vdisk RG003LG001VS067
mmvdisk: (mmcrvdisk) [I] Processing vdisk RG003LG002VS067
mmvdisk: (mmcrvdisk) [I] Processing vdisk RG003LG003VS067
mmvdisk: (mmcrvdisk) [I] Processing vdisk RG003LG004VS067
mmvdisk: Created all vdisks in vdisk set 'fscesroot_io12_s'.
mmvdisk: (mmcrnsd) Processing disk RG003LG001VS067
mmvdisk: (mmcrnsd) Processing disk RG003LG002VS067
mmvdisk: (mmcrnsd) Processing disk RG003LG003VS067
mmvdisk: (mmcrnsd) Processing disk RG003LG004VS067
mmvdisk: Created all NSDs in vdisk set 'fscesroot_io12_s'.
Tue May 18 09:16:08 CEST 2021
protectFilePool
mmvdisk: Vdisk set 'protectFilePool_io08_s' has been defined.
mmvdisk: Recovery group 'rg_nas22io08a-i' has been defined in vdisk set 'protectFilePool_io08_s'.
mmvdisk: Recovery group 'rg_nas22io08b-i' has been defined in vdisk set 'protectFilePool_io08_s'.

                             member vdisks     
vdisk set               count   size   raw size  created  file system and attributes
----------------------  ----- -------- --------  -------  --------------------------
protectFilePool_io08_s      2  557 GiB  720 GiB  no       -, DA1, 8+2p, 1 MiB, dataAndMetadata, system

                 declustered                 capacity            all vdisk sets defined 
recovery group      array     type  total raw  free raw  free%  in the declustered array
---------------  -----------  ----  ---------  --------  -----  ------------------------
rg_nas22io08a-i  DA1          HDD    2198 TiB    63 TiB     2%  VS022_fs2202, VS023_fs2202,
                                                                VS024_fs2202, VS025_fs2202,
                                                                VS026_fs2202, VS027_fs2203,
                                                                VS028_fs2203, VS029_fs2203,
                                                                VS030_fs2203, VS031_fs3101h,
                                                                VS032_fs3101h, VS033_fs3101h,
                                                                VS034_fs3101h, fs2201io08capacity2,
                                                                fs2201io08capacity3,
                                                                fs2201io08data1, fs2201io08data10,
                                                                fs2201io08data2, fs2201io08data3,
                                                                fs2201io08data4, fs2201io08data5,
                                                                fs2201io08data6, fs2201io08data7,
                                                                fs2201io08data8, fs2201io08data9,
                                                                fs2202io08capacity1, io08Capacity1,
                                                                protectFilePool_io08_s
rg_nas22io08b-i  DA1          HDD    2198 TiB    63 TiB     2%  VS022_fs2202, VS023_fs2202,
                                                                VS024_fs2202, VS025_fs2202,
                                                                VS026_fs2202, VS027_fs2203,
                                                                VS028_fs2203, VS029_fs2203,
                                                                VS030_fs2203, VS031_fs3101h,
                                                                VS032_fs3101h, VS033_fs3101h,
                                                                VS034_fs3101h, fs2201io08capacity2,
                                                                fs2201io08capacity3,
                                                                fs2201io08data1, fs2201io08data10,
                                                                fs2201io08data2, fs2201io08data3,
                                                                fs2201io08data4, fs2201io08data5,
                                                                fs2201io08data6, fs2201io08data7,
                                                                fs2201io08data8, fs2201io08data9,
                                                                fs2202io08capacity1, io08Capacity1,
                                                                protectFilePool_io08_s

                            vdisk set map memory per server      
node class            available  required  required per vdisk set
--------------------  ---------  --------  ----------------------
nas22io08anas22io08b     70 GiB    67 GiB  fs2201io08capacity2 (11 GiB),
                                           fs2201io08capacity3 (11 GiB), fs2201io08data1 (584 MiB),
                                           fs2201io08data10 (584 MiB), fs2201io08data2 (584 MiB),
                                           fs2201io08data3 (584 MiB), fs2201io08data4 (584 MiB),
                                           fs2201io08data5 (584 MiB), fs2201io08data6 (584 MiB),
                                           fs2201io08data7 (584 MiB), fs2201io08data8 (584 MiB),
                                           fs2201io08data9 (584 MiB),
                                           fs2202io08capacity1 (5757 MiB), io08Capacity1 (4724 MiB),
                                           protectFilePool_io08_s (32 MiB), VS022_fs2202 (296 MiB),
                                           VS023_fs2202 (296 MiB), VS024_fs2202 (296 MiB),
                                           VS025_fs2202 (296 MiB), VS026_fs2202 (296 MiB),
                                           VS027_fs2203 (2641 MiB), VS028_fs2203 (2641 MiB),
                                           VS029_fs2203 (2641 MiB), VS030_fs2203 (2641 MiB),
                                           VS031_fs3101h (4430 MiB), VS032_fs3101h (4430 MiB),
                                           VS033_fs3101h (4430 MiB), VS034_fs3101h (4430 MiB)

mmvdisk: 2 vdisks and 2 NSDs will be created in vdisk set 'protectFilePool_io08_s'.
mmvdisk: (mmcrvdisk) [I] Processing vdisk RG006VS080
mmvdisk: (mmcrvdisk) [I] Processing vdisk RG007VS080
mmvdisk: Created all vdisks in vdisk set 'protectFilePool_io08_s'.
mmvdisk: (mmcrnsd) Processing disk RG006VS080
mmvdisk: (mmcrnsd) Processing disk RG007VS080
mmvdisk: Created all NSDs in vdisk set 'protectFilePool_io08_s'.
Tue May 18 09:18:19 CEST 2021
