echo VS015_fs2201_io12_m_1
mmvdisk vs delete --vs VS015_fs2201_io12_m_1
mmvdisk vs undefine --vs VS015_fs2201_io12_m_1 --confirm
echo VS064_fs2202_io12_m_1
mmvdisk vs delete --vs VS064_fs2202_io12_m_1
mmvdisk vs undefine --vs VS064_fs2202_io12_m_1 --confirm
echo VS065_fs2203_io12_m_1
mmvdisk vs delete --vs VS065_fs2203_io12_m_1
mmvdisk vs undefine --vs VS065_fs2203_io12_m_1 --confirm
echo VS066_fs3101h_io12_m_1
mmvdisk vs delete --vs VS066_fs3101h_io12_m_1
mmvdisk vs undefine --vs VS066_fs3101h_io12_m_1 --confirm
echo VS067_fscesroot_io12
mmvdisk vs delete --vs VS067_fscesroot_io12
mmvdisk vs undefine --vs VS067_fscesroot_io12 --confirm
echo VS080_protectFilePool_io08
mmvdisk vs delete --vs VS080_protectFilePool_io08
mmvdisk vs undefine --vs VS080_protectFilePool_io08 --confirm
