== any new metadata vdisk set defined?
fs2201_io12_s_1           yes      -                rg_nas22io12
fs2202_io12_s_1           yes      -                rg_nas22io12
fs2203_io12_s_1           yes      -                rg_nas22io12
fs3101h_io12_s_1          yes      -                rg_nas22io12
fscesroot_io12_s          yes      -                rg_nas22io12
protectFilePool_io08_s    yes      -                rg_nas22io08a-i, rg_nas22io08b-i
== done
== found vdisk sets fs2201_io12_s_1,fs2202_io12_s_1,fs2203_io12_s_1,fs3101h_io12_s_1,fscesroot_io12_s on rg_nas22io12
++ mmvdisk vs list --vs fs2201_io12_s_1,fs2202_io12_s_1,fs2203_io12_s_1,fs3101h_io12_s_1,fscesroot_io12_s

                       member vdisks     
vdisk set         count   size   raw size  created  file system and attributes
----------------  ----- -------- --------  -------  --------------------------
fs2201_io12_s_1       4 1998 GiB 6072 GiB  yes      -, DA1, 3WayReplication, 1 MiB, metadataOnly, system
fs2202_io12_s_1       4 1251 GiB 3804 GiB  yes      -, DA1, 3WayReplication, 1 MiB, metadataOnly, system
fs2203_io12_s_1       4  126 GiB  384 GiB  yes      -, DA1, 3WayReplication, 1 MiB, metadataOnly, system
fs3101h_io12_s_1      4 1500 GiB 4560 GiB  yes      -, DA1, 3WayReplication, 1 MiB, metadataOnly, system
fscesroot_io12_s      4 4016 MiB   12 GiB  yes      -, DA1, 3WayReplication, 1 MiB, dataAndMetadata, system

                declustered                 capacity            all vdisk sets defined 
recovery group     array     type  total raw  free raw  free%  in the declustered array
--------------  -----------  ----  ---------  --------  -----  ------------------------
rg_nas22io12    DA1          NVMe    152 TiB    94 TiB    62%  fs2201_io12_s_1, fs2202_io12_s_1,
                                                               fs2203_io12_s_1, fs3101h_io12_s_1,
                                                               fscesroot_io12_s

                  vdisk set map memory per server      
node class  available  required  required per vdisk set
----------  ---------  --------  ----------------------
nas22io12      90 GiB  5866 MiB  fs2201_io12_s_1 (383 MiB), fs2202_io12_s_1 (240 MiB),
                                 fs2203_io12_s_1 (25 MiB), fs3101h_io12_s_1 (288 MiB),
                                 fscesroot_io12_s (1024 KiB)

++ mmvdisk vdisk list --vs fs2201_io12_s_1,fs2202_io12_s_1,fs2203_io12_s_1,fs3101h_io12_s_1,fscesroot_io12_s

                                                                   declustered array, RAID code,
vdisk               vdisk set         file system  recovery group            block size           remarks
------------------  ----------------  -----------  --------------  -----------------------------  -------
RG003LG001VS015     fs2201_io12_s_1   -            rg_nas22io12    DA1, 3WayReplication, 1 MiB    
RG003LG002VS015     fs2201_io12_s_1   -            rg_nas22io12    DA1, 3WayReplication, 1 MiB    
RG003LG003VS015     fs2201_io12_s_1   -            rg_nas22io12    DA1, 3WayReplication, 1 MiB    
RG003LG004VS015     fs2201_io12_s_1   -            rg_nas22io12    DA1, 3WayReplication, 1 MiB    
RG003LG001VS064     fs2202_io12_s_1   -            rg_nas22io12    DA1, 3WayReplication, 1 MiB    
RG003LG002VS064     fs2202_io12_s_1   -            rg_nas22io12    DA1, 3WayReplication, 1 MiB    
RG003LG003VS064     fs2202_io12_s_1   -            rg_nas22io12    DA1, 3WayReplication, 1 MiB    
RG003LG004VS064     fs2202_io12_s_1   -            rg_nas22io12    DA1, 3WayReplication, 1 MiB    
RG003LG001VS065     fs2203_io12_s_1   -            rg_nas22io12    DA1, 3WayReplication, 1 MiB    
RG003LG002VS065     fs2203_io12_s_1   -            rg_nas22io12    DA1, 3WayReplication, 1 MiB    
RG003LG003VS065     fs2203_io12_s_1   -            rg_nas22io12    DA1, 3WayReplication, 1 MiB    
RG003LG004VS065     fs2203_io12_s_1   -            rg_nas22io12    DA1, 3WayReplication, 1 MiB    
RG003LG001VS066     fs3101h_io12_s_1  -            rg_nas22io12    DA1, 3WayReplication, 1 MiB    
RG003LG002VS066     fs3101h_io12_s_1  -            rg_nas22io12    DA1, 3WayReplication, 1 MiB    
RG003LG003VS066     fs3101h_io12_s_1  -            rg_nas22io12    DA1, 3WayReplication, 1 MiB    
RG003LG004VS066     fs3101h_io12_s_1  -            rg_nas22io12    DA1, 3WayReplication, 1 MiB    
RG003LG001VS067     fscesroot_io12_s  -            rg_nas22io12    DA1, 3WayReplication, 1 MiB    
RG003LG002VS067     fscesroot_io12_s  -            rg_nas22io12    DA1, 3WayReplication, 1 MiB    
RG003LG003VS067     fscesroot_io12_s  -            rg_nas22io12    DA1, 3WayReplication, 1 MiB    
RG003LG004VS067     fscesroot_io12_s  -            rg_nas22io12    DA1, 3WayReplication, 1 MiB    

++ set +x
++ mmvdisk vs list --rg rg_nas22io12

                declustered                 capacity            all vdisk sets defined 
recovery group     array     type  total raw  free raw  free%  in the declustered array
--------------  -----------  ----  ---------  --------  -----  ------------------------
rg_nas22io12    DA1          NVMe    152 TiB    94 TiB    62%  fs2201_io12_s_1, fs2202_io12_s_1,
                                                               fs2203_io12_s_1, fs3101h_io12_s_1,
                                                               fscesroot_io12_s

                  vdisk set map memory per server      
node class  available  required  required per vdisk set
----------  ---------  --------  ----------------------
nas22io12      90 GiB  5866 MiB  fs2201_io12_s_1 (383 MiB), fs2202_io12_s_1 (240 MiB),
                                 fs2203_io12_s_1 (25 MiB), fs3101h_io12_s_1 (288 MiB),
                                 fscesroot_io12_s (1024 KiB)

++ mmvdisk vdisk list --rg rg_nas22io12

                                                                   declustered array, RAID code,
vdisk               vdisk set         file system  recovery group            block size           remarks
------------------  ----------------  -----------  --------------  -----------------------------  -------
RG003LG001VS015     fs2201_io12_s_1   -            rg_nas22io12    DA1, 3WayReplication, 1 MiB    
RG003LG002VS015     fs2201_io12_s_1   -            rg_nas22io12    DA1, 3WayReplication, 1 MiB    
RG003LG003VS015     fs2201_io12_s_1   -            rg_nas22io12    DA1, 3WayReplication, 1 MiB    
RG003LG004VS015     fs2201_io12_s_1   -            rg_nas22io12    DA1, 3WayReplication, 1 MiB    
RG003LG001VS064     fs2202_io12_s_1   -            rg_nas22io12    DA1, 3WayReplication, 1 MiB    
RG003LG002VS064     fs2202_io12_s_1   -            rg_nas22io12    DA1, 3WayReplication, 1 MiB    
RG003LG003VS064     fs2202_io12_s_1   -            rg_nas22io12    DA1, 3WayReplication, 1 MiB    
RG003LG004VS064     fs2202_io12_s_1   -            rg_nas22io12    DA1, 3WayReplication, 1 MiB    
RG003LG001VS065     fs2203_io12_s_1   -            rg_nas22io12    DA1, 3WayReplication, 1 MiB    
RG003LG002VS065     fs2203_io12_s_1   -            rg_nas22io12    DA1, 3WayReplication, 1 MiB    
RG003LG003VS065     fs2203_io12_s_1   -            rg_nas22io12    DA1, 3WayReplication, 1 MiB    
RG003LG004VS065     fs2203_io12_s_1   -            rg_nas22io12    DA1, 3WayReplication, 1 MiB    
RG003LG001VS066     fs3101h_io12_s_1  -            rg_nas22io12    DA1, 3WayReplication, 1 MiB    
RG003LG002VS066     fs3101h_io12_s_1  -            rg_nas22io12    DA1, 3WayReplication, 1 MiB    
RG003LG003VS066     fs3101h_io12_s_1  -            rg_nas22io12    DA1, 3WayReplication, 1 MiB    
RG003LG004VS066     fs3101h_io12_s_1  -            rg_nas22io12    DA1, 3WayReplication, 1 MiB    
RG003LG001VS067     fscesroot_io12_s  -            rg_nas22io12    DA1, 3WayReplication, 1 MiB    
RG003LG002VS067     fscesroot_io12_s  -            rg_nas22io12    DA1, 3WayReplication, 1 MiB    
RG003LG003VS067     fscesroot_io12_s  -            rg_nas22io12    DA1, 3WayReplication, 1 MiB    
RG003LG004VS067     fscesroot_io12_s  -            rg_nas22io12    DA1, 3WayReplication, 1 MiB    

++ set +x
== protectFilePool protectFilePool_io08_s is separate
++ mmvdisk vs list --vs protectFilePool_io08_s

                             member vdisks     
vdisk set               count   size   raw size  created  file system and attributes
----------------------  ----- -------- --------  -------  --------------------------
protectFilePool_io08_s      2  557 GiB  720 GiB  yes      -, DA1, 8+2p, 1 MiB, dataAndMetadata, system

                 declustered                 capacity            all vdisk sets defined 
recovery group      array     type  total raw  free raw  free%  in the declustered array
---------------  -----------  ----  ---------  --------  -----  ------------------------
rg_nas22io08a-i  DA1          HDD    2198 TiB    63 TiB     2%  VS022_fs2202, VS023_fs2202,
                                                                VS024_fs2202, VS025_fs2202,
                                                                VS026_fs2202, VS027_fs2203,
                                                                VS028_fs2203, VS029_fs2203,
                                                                VS030_fs2203, VS031_fs3101h,
                                                                VS032_fs3101h, VS033_fs3101h,
                                                                VS034_fs3101h, fs2201io08capacity2,
                                                                fs2201io08capacity3,
                                                                fs2201io08data1, fs2201io08data10,
                                                                fs2201io08data2, fs2201io08data3,
                                                                fs2201io08data4, fs2201io08data5,
                                                                fs2201io08data6, fs2201io08data7,
                                                                fs2201io08data8, fs2201io08data9,
                                                                fs2202io08capacity1, io08Capacity1,
                                                                protectFilePool_io08_s
rg_nas22io08b-i  DA1          HDD    2198 TiB    63 TiB     2%  VS022_fs2202, VS023_fs2202,
                                                                VS024_fs2202, VS025_fs2202,
                                                                VS026_fs2202, VS027_fs2203,
                                                                VS028_fs2203, VS029_fs2203,
                                                                VS030_fs2203, VS031_fs3101h,
                                                                VS032_fs3101h, VS033_fs3101h,
                                                                VS034_fs3101h, fs2201io08capacity2,
                                                                fs2201io08capacity3,
                                                                fs2201io08data1, fs2201io08data10,
                                                                fs2201io08data2, fs2201io08data3,
                                                                fs2201io08data4, fs2201io08data5,
                                                                fs2201io08data6, fs2201io08data7,
                                                                fs2201io08data8, fs2201io08data9,
                                                                fs2202io08capacity1, io08Capacity1,
                                                                protectFilePool_io08_s

                            vdisk set map memory per server      
node class            available  required  required per vdisk set
--------------------  ---------  --------  ----------------------
nas22io08anas22io08b     70 GiB    67 GiB  fs2201io08capacity2 (11 GiB),
                                           fs2201io08capacity3 (11 GiB), fs2201io08data1 (584 MiB),
                                           fs2201io08data10 (584 MiB), fs2201io08data2 (584 MiB),
                                           fs2201io08data3 (584 MiB), fs2201io08data4 (584 MiB),
                                           fs2201io08data5 (584 MiB), fs2201io08data6 (584 MiB),
                                           fs2201io08data7 (584 MiB), fs2201io08data8 (584 MiB),
                                           fs2201io08data9 (584 MiB),
                                           fs2202io08capacity1 (5757 MiB), io08Capacity1 (4724 MiB),
                                           protectFilePool_io08_s (32 MiB), VS022_fs2202 (296 MiB),
                                           VS023_fs2202 (296 MiB), VS024_fs2202 (296 MiB),
                                           VS025_fs2202 (296 MiB), VS026_fs2202 (296 MiB),
                                           VS027_fs2203 (2641 MiB), VS028_fs2203 (2641 MiB),
                                           VS029_fs2203 (2641 MiB), VS030_fs2203 (2641 MiB),
                                           VS031_fs3101h (4430 MiB), VS032_fs3101h (4430 MiB),
                                           VS033_fs3101h (4430 MiB), VS034_fs3101h (4430 MiB)

++ mmvdisk vdisk list --vs protectFilePool_io08_s

                                                                          declustered array, RAID code,
vdisk               vdisk set               file system  recovery group             block size           remarks
------------------  ----------------------  -----------  ---------------  -----------------------------  -------
RG006VS080          protectFilePool_io08_s  -            rg_nas22io08a-i  DA1, 8+2p, 1 MiB               
RG007VS080          protectFilePool_io08_s  -            rg_nas22io08b-i  DA1, 8+2p, 1 MiB               

++ set +x
== vdisk sizes on rg_nas22io12
++ mmvdisk rg list --rg rg_nas22io12 --vdisk

                    declustered array                                          block size and     
vdisk                 and log group    activity  capacity  RAID code        checksum granularity  remarks
------------------  -------  --------  --------  --------  ---------------  ---------  ---------  -------
RG003LG001LOGHOME   DA1      LG001     normal    8192 MiB  4WayReplication      2 MiB       4096  log home
RG003LG002LOGHOME   DA1      LG002     normal    8192 MiB  4WayReplication      2 MiB       4096  log home
RG003LG003LOGHOME   DA1      LG003     normal    8192 MiB  4WayReplication      2 MiB       4096  log home
RG003LG004LOGHOME   DA1      LG004     normal    8192 MiB  4WayReplication      2 MiB       4096  log home
RG003ROOTLOGHOME    DA1      root      normal    8192 MiB  4WayReplication      2 MiB       4096  log home
RG003LG001VS015     DA1      LG001     normal    1998 GiB  3WayReplication      1 MiB       8192  
RG003LG001VS064     DA1      LG001     normal    1251 GiB  3WayReplication      1 MiB       8192  
RG003LG001VS065     DA1      LG001     normal     126 GiB  3WayReplication      1 MiB       8192  
RG003LG001VS066     DA1      LG001     normal    1500 GiB  3WayReplication      1 MiB       8192  
RG003LG001VS067     DA1      LG001     normal    4016 MiB  3WayReplication      1 MiB       8192  
RG003LG002VS015     DA1      LG002     normal    1998 GiB  3WayReplication      1 MiB       8192  
RG003LG002VS064     DA1      LG002     normal    1251 GiB  3WayReplication      1 MiB       8192  
RG003LG002VS065     DA1      LG002     normal     126 GiB  3WayReplication      1 MiB       8192  
RG003LG002VS066     DA1      LG002     normal    1500 GiB  3WayReplication      1 MiB       8192  
RG003LG002VS067     DA1      LG002     normal    4016 MiB  3WayReplication      1 MiB       8192  
RG003LG003VS015     DA1      LG003     normal    1998 GiB  3WayReplication      1 MiB       8192  
RG003LG003VS064     DA1      LG003     normal    1251 GiB  3WayReplication      1 MiB       8192  
RG003LG003VS065     DA1      LG003     normal     126 GiB  3WayReplication      1 MiB       8192  
RG003LG003VS066     DA1      LG003     normal    1500 GiB  3WayReplication      1 MiB       8192  
RG003LG003VS067     DA1      LG003     normal    4016 MiB  3WayReplication      1 MiB       8192  
RG003LG004VS015     DA1      LG004     normal    1998 GiB  3WayReplication      1 MiB       8192  
RG003LG004VS064     DA1      LG004     normal    1251 GiB  3WayReplication      1 MiB       8192  
RG003LG004VS065     DA1      LG004     normal     126 GiB  3WayReplication      1 MiB       8192  
RG003LG004VS066     DA1      LG004     normal    1500 GiB  3WayReplication      1 MiB       8192  
RG003LG004VS067     DA1      LG004     normal    4016 MiB  3WayReplication      1 MiB       8192  

++ set +x
== vdisk sizes on nas22io08
++ mmvdisk rg list --rg rg_nas22io08a-i --vdisk
++ grep protectFilePool_io08_s
++ mmvdisk rg list --rg rg_nas22io08b-i --vdisk
++ grep protectFilePool_io08_s
++ set +x
